{
  "data": [
    {
      "id": "d6jzel",
      "url": "https://wallhaven.cc/w/d6jzel",
      "short_url": "https://whvn.cc/d6jzel",
      "views": 236,
      "favorites": 23,
      "source": "https://www.pixiv.net/en/artworks/121211962",
      "purity": "sketchy",
      "category": "anime",
      "dimension_x": 4999,
      "dimension_y": 3541,
      "resolution": "4999x3541",
      "ratio": "1.41",
      "file_size": 13899121,
      "file_type": "image/png",
      "created_at": "2024-08-08 16:43:53",
      "colors": ["#999999", "#cccccc", "#ffffff", "#66cccc", "#424153"],
      "path": "https://w.wallhaven.cc/full/d6/wallhaven-d6jzel.png",
      "thumbs": {
        "large": "https://th.wallhaven.cc/lg/d6/d6jzel.jpg",
        "original": "https://th.wallhaven.cc/orig/d6/d6jzel.jpg",
        "small": "https://th.wallhaven.cc/small/d6/d6jzel.jpg"
      }
    },
    {
      "id": "l8x7ll",
      "url": "https://wallhaven.cc/w/l8x7ll",
      "short_url": "https://whvn.cc/l8x7ll",
      "views": 320,
      "favorites": 24,
      "source": "https://www.pixiv.net/artworks/121277864",
      "purity": "sketchy",
      "category": "anime",
      "dimension_x": 3701,
      "dimension_y": 5045,
      "resolution": "3701x5045",
      "ratio": "0.73",
      "file_size": 10442893,
      "file_type": "image/jpeg",
      "created_at": "2024-08-07 18:38:37",
      "colors": ["#999999", "#abbcda", "#fdadc7", "#ffffff", "#cccccc"],
      "path": "https://w.wallhaven.cc/full/l8/wallhaven-l8x7ll.jpg",
      "thumbs": {
        "large": "https://th.wallhaven.cc/lg/l8/l8x7ll.jpg",
        "original": "https://th.wallhaven.cc/orig/l8/l8x7ll.jpg",
        "small": "https://th.wallhaven.cc/small/l8/l8x7ll.jpg"
      }
    },
    {
      "id": "o5qe27",
      "url": "https://wallhaven.cc/w/o5qe27",
      "short_url": "https://whvn.cc/o5qe27",
      "views": 655,
      "favorites": 75,
      "source": "https://twitter.com/magchomp8/status/1820770235101966519",
      "purity": "sketchy",
      "category": "anime",
      "dimension_x": 2901,
      "dimension_y": 4096,
      "resolution": "2901x4096",
      "ratio": "0.71",
      "file_size": 781029,
      "file_type": "image/jpeg",
      "created_at": "2024-08-06 19:08:31",
      "colors": ["#abbcda", "#66cccc", "#cccccc", "#999999", "#e7d8b1"],
      "path": "https://w.wallhaven.cc/full/o5/wallhaven-o5qe27.jpg",
      "thumbs": {
        "large": "https://th.wallhaven.cc/lg/o5/o5qe27.jpg",
        "original": "https://th.wallhaven.cc/orig/o5/o5qe27.jpg",
        "small": "https://th.wallhaven.cc/small/o5/o5qe27.jpg"
      }
    },
    {
      "id": "vqjv63",
      "url": "https://wallhaven.cc/w/vqjv63",
      "short_url": "https://whvn.cc/vqjv63",
      "views": 1544,
      "favorites": 59,
      "source": "https://www.pixiv.net/artworks/121202761",
      "purity": "sfw",
      "category": "anime",
      "dimension_x": 3840,
      "dimension_y": 2160,
      "resolution": "3840x2160",
      "ratio": "1.78",
      "file_size": 1970486,
      "file_type": "image/jpeg",
      "created_at": "2024-08-05 18:47:35",
      "colors": ["#999999", "#424153", "#cccccc", "#663399", "#abbcda"],
      "path": "https://w.wallhaven.cc/full/vq/wallhaven-vqjv63.jpg",
      "thumbs": {
        "large": "https://th.wallhaven.cc/lg/vq/vqjv63.jpg",
        "original": "https://th.wallhaven.cc/orig/vq/vqjv63.jpg",
        "small": "https://th.wallhaven.cc/small/vq/vqjv63.jpg"
      }
    },
    {
      "id": "3lvgxv",
      "url": "https://wallhaven.cc/w/3lvgxv",
      "short_url": "https://whvn.cc/3lvgxv",
      "views": 565,
      "favorites": 35,
      "source": "https://www.pixiv.net/artworks/114399565",
      "purity": "sketchy",
      "category": "anime",
      "dimension_x": 3840,
      "dimension_y": 2160,
      "resolution": "3840x2160",
      "ratio": "1.78",
      "file_size": 8971117,
      "file_type": "image/png",
      "created_at": "2024-08-04 11:25:32",
      "colors": ["#abbcda", "#424153", "#999999", "#cccccc", "#e7d8b1"],
      "path": "https://w.wallhaven.cc/full/3l/wallhaven-3lvgxv.png",
      "thumbs": {
        "large": "https://th.wallhaven.cc/lg/3l/3lvgxv.jpg",
        "original": "https://th.wallhaven.cc/orig/3l/3lvgxv.jpg",
        "small": "https://th.wallhaven.cc/small/3l/3lvgxv.jpg"
      }
    },
    {
      "id": "weg3jx",
      "url": "https://wallhaven.cc/w/weg3jx",
      "short_url": "https://whvn.cc/weg3jx",
      "views": 557,
      "favorites": 49,
      "source": "https://twitter.com/aosaki_1100/status/1819312435448500558",
      "purity": "sketchy",
      "category": "anime",
      "dimension_x": 2894,
      "dimension_y": 4093,
      "resolution": "2894x4093",
      "ratio": "0.71",
      "file_size": 1644573,
      "file_type": "image/jpeg",
      "created_at": "2024-08-03 07:09:17",
      "colors": ["#ffffff", "#999999", "#cccccc", "#66cccc", "#e7d8b1"],
      "path": "https://w.wallhaven.cc/full/we/wallhaven-weg3jx.jpg",
      "thumbs": {
        "large": "https://th.wallhaven.cc/lg/we/weg3jx.jpg",
        "original": "https://th.wallhaven.cc/orig/we/weg3jx.jpg",
        "small": "https://th.wallhaven.cc/small/we/weg3jx.jpg"
      }
    },
    {
      "id": "yx6kgg",
      "url": "https://wallhaven.cc/w/yx6kgg",
      "short_url": "https://whvn.cc/yx6kgg",
      "views": 533,
      "favorites": 60,
      "source": "https://twitter.com/Bratjasan/status/1818984272646242334",
      "purity": "sketchy",
      "category": "anime",
      "dimension_x": 3524,
      "dimension_y": 2550,
      "resolution": "3524x2550",
      "ratio": "1.38",
      "file_size": 949270,
      "file_type": "image/jpeg",
      "created_at": "2024-08-01 19:25:00",
      "colors": ["#e7d8b1", "#ffffff", "#cccccc", "#999999", "#abbcda"],
      "path": "https://w.wallhaven.cc/full/yx/wallhaven-yx6kgg.jpg",
      "thumbs": {
        "large": "https://th.wallhaven.cc/lg/yx/yx6kgg.jpg",
        "original": "https://th.wallhaven.cc/orig/yx/yx6kgg.jpg",
        "small": "https://th.wallhaven.cc/small/yx/yx6kgg.jpg"
      }
    },
    {
      "id": "6d3y8q",
      "url": "https://wallhaven.cc/w/6d3y8q",
      "short_url": "https://whvn.cc/6d3y8q",
      "views": 704,
      "favorites": 61,
      "source": "https://fantia.jp/posts/2906390",
      "purity": "sketchy",
      "category": "anime",
      "dimension_x": 3000,
      "dimension_y": 4500,
      "resolution": "3000x4500",
      "ratio": "0.67",
      "file_size": 7731085,
      "file_type": "image/jpeg",
      "created_at": "2024-07-31 16:34:36",
      "colors": ["#cccccc", "#999999", "#abbcda", "#e7d8b1", "#ffffff"],
      "path": "https://w.wallhaven.cc/full/6d/wallhaven-6d3y8q.jpg",
      "thumbs": {
        "large": "https://th.wallhaven.cc/lg/6d/6d3y8q.jpg",
        "original": "https://th.wallhaven.cc/orig/6d/6d3y8q.jpg",
        "small": "https://th.wallhaven.cc/small/6d/6d3y8q.jpg"
      }
    },
    {
      "id": "exgwzr",
      "url": "https://wallhaven.cc/w/exgwzr",
      "short_url": "https://whvn.cc/exgwzr",
      "views": 452,
      "favorites": 42,
      "source": "https://www.pixiv.net/artworks/120941819",
      "purity": "sketchy",
      "category": "anime",
      "dimension_x": 2894,
      "dimension_y": 4093,
      "resolution": "2894x4093",
      "ratio": "0.71",
      "file_size": 7242680,
      "file_type": "image/png",
      "created_at": "2024-07-27 22:36:10",
      "colors": ["#999999", "#e7d8b1", "#424153", "#ffffff", "#abbcda"],
      "path": "https://w.wallhaven.cc/full/ex/wallhaven-exgwzr.png",
      "thumbs": {
        "large": "https://th.wallhaven.cc/lg/ex/exgwzr.jpg",
        "original": "https://th.wallhaven.cc/orig/ex/exgwzr.jpg",
        "small": "https://th.wallhaven.cc/small/ex/exgwzr.jpg"
      }
    },
    {
      "id": "p91y3m",
      "url": "https://wallhaven.cc/w/p91y3m",
      "short_url": "https://whvn.cc/p91y3m",
      "views": 464,
      "favorites": 36,
      "source": "https://www.pixiv.net/artworks/120946724",
      "purity": "sketchy",
      "category": "anime",
      "dimension_x": 3508,
      "dimension_y": 1857,
      "resolution": "3508x1857",
      "ratio": "1.89",
      "file_size": 3028020,
      "file_type": "image/jpeg",
      "created_at": "2024-07-27 22:28:02",
      "colors": ["#424153", "#999999", "#cccccc", "#ffffff", "#66cccc"],
      "path": "https://w.wallhaven.cc/full/p9/wallhaven-p91y3m.jpg",
      "thumbs": {
        "large": "https://th.wallhaven.cc/lg/p9/p91y3m.jpg",
        "original": "https://th.wallhaven.cc/orig/p9/p91y3m.jpg",
        "small": "https://th.wallhaven.cc/small/p9/p91y3m.jpg"
      }
    },
    {
      "id": "7pvwmy",
      "url": "https://wallhaven.cc/w/7pvwmy",
      "short_url": "https://whvn.cc/7pvwmy",
      "views": 674,
      "favorites": 56,
      "source": "https://arca.live/b/commission/112134699",
      "purity": "sketchy",
      "category": "anime",
      "dimension_x": 3840,
      "dimension_y": 2160,
      "resolution": "3840x2160",
      "ratio": "1.78",
      "file_size": 20044557,
      "file_type": "image/png",
      "created_at": "2024-07-26 20:42:40",
      "colors": ["#ffffff", "#cccccc", "#fdadc7", "#0099cc", "#999999"],
      "path": "https://w.wallhaven.cc/full/7p/wallhaven-7pvwmy.png",
      "thumbs": {
        "large": "https://th.wallhaven.cc/lg/7p/7pvwmy.jpg",
        "original": "https://th.wallhaven.cc/orig/7p/7pvwmy.jpg",
        "small": "https://th.wallhaven.cc/small/7p/7pvwmy.jpg"
      }
    },
    {
      "id": "o5ql7p",
      "url": "https://wallhaven.cc/w/o5ql7p",
      "short_url": "https://whvn.cc/o5ql7p",
      "views": 641,
      "favorites": 55,
      "source": "https://t.bilibili.com/958327737732300802",
      "purity": "sketchy",
      "category": "anime",
      "dimension_x": 5985,
      "dimension_y": 3201,
      "resolution": "5985x3201",
      "ratio": "1.87",
      "file_size": 11841525,
      "file_type": "image/jpeg",
      "created_at": "2024-07-26 17:27:32",
      "colors": ["#424153", "#999999", "#e7d8b1", "#996633", "#cccccc"],
      "path": "https://w.wallhaven.cc/full/o5/wallhaven-o5ql7p.jpg",
      "thumbs": {
        "large": "https://th.wallhaven.cc/lg/o5/o5ql7p.jpg",
        "original": "https://th.wallhaven.cc/orig/o5/o5ql7p.jpg",
        "small": "https://th.wallhaven.cc/small/o5/o5ql7p.jpg"
      }
    },
    {
      "id": "kxekj1",
      "url": "https://wallhaven.cc/w/kxekj1",
      "short_url": "https://whvn.cc/kxekj1",
      "views": 923,
      "favorites": 84,
      "source": "https://twitter.com/_Machi0910/status/1816747908232028381",
      "purity": "sketchy",
      "category": "anime",
      "dimension_x": 4096,
      "dimension_y": 2389,
      "resolution": "4096x2389",
      "ratio": "1.71",
      "file_size": 1325051,
      "file_type": "image/jpeg",
      "created_at": "2024-07-26 17:08:07",
      "colors": ["#ffffff", "#cccccc", "#999999", "#abbcda", "#e7d8b1"],
      "path": "https://w.wallhaven.cc/full/kx/wallhaven-kxekj1.jpg",
      "thumbs": {
        "large": "https://th.wallhaven.cc/lg/kx/kxekj1.jpg",
        "original": "https://th.wallhaven.cc/orig/kx/kxekj1.jpg",
        "small": "https://th.wallhaven.cc/small/kx/kxekj1.jpg"
      }
    },
    {
      "id": "5gv553",
      "url": "https://wallhaven.cc/w/5gv553",
      "short_url": "https://whvn.cc/5gv553",
      "views": 1013,
      "favorites": 78,
      "source": "https://twitter.com/NIKKE_japan/status/1816065804749750597",
      "purity": "sketchy",
      "category": "anime",
      "dimension_x": 4096,
      "dimension_y": 2304,
      "resolution": "4096x2304",
      "ratio": "1.78",
      "file_size": 1289110,
      "file_type": "image/jpeg",
      "created_at": "2024-07-24 17:18:18",
      "colors": ["#e7d8b1", "#999999", "#ffffff", "#424153", "#cccccc"],
      "path": "https://w.wallhaven.cc/full/5g/wallhaven-5gv553.jpg",
      "thumbs": {
        "large": "https://th.wallhaven.cc/lg/5g/5gv553.jpg",
        "original": "https://th.wallhaven.cc/orig/5g/5gv553.jpg",
        "small": "https://th.wallhaven.cc/small/5g/5gv553.jpg"
      }
    },
    {
      "id": "weg1g7",
      "url": "https://wallhaven.cc/w/weg1g7",
      "short_url": "https://whvn.cc/weg1g7",
      "views": 1591,
      "favorites": 117,
      "source": "https://www.pixiv.net/artworks/120823001",
      "purity": "sketchy",
      "category": "anime",
      "dimension_x": 4000,
      "dimension_y": 2542,
      "resolution": "4000x2542",
      "ratio": "1.57",
      "file_size": 4318364,
      "file_type": "image/jpeg",
      "created_at": "2024-07-23 18:21:57",
      "colors": ["#424153", "#999999", "#cccccc", "#ffffff", "#996633"],
      "path": "https://w.wallhaven.cc/full/we/wallhaven-weg1g7.jpg",
      "thumbs": {
        "large": "https://th.wallhaven.cc/lg/we/weg1g7.jpg",
        "original": "https://th.wallhaven.cc/orig/we/weg1g7.jpg",
        "small": "https://th.wallhaven.cc/small/we/weg1g7.jpg"
      }
    },
    {
      "id": "o5qg79",
      "url": "https://wallhaven.cc/w/o5qg79",
      "short_url": "https://whvn.cc/o5qg79",
      "views": 647,
      "favorites": 45,
      "source": "https://twitter.com/Zeamilky/status/1814487160634126491",
      "purity": "sketchy",
      "category": "anime",
      "dimension_x": 3072,
      "dimension_y": 4096,
      "resolution": "3072x4096",
      "ratio": "0.75",
      "file_size": 1931581,
      "file_type": "image/jpeg",
      "created_at": "2024-07-21 09:26:28",
      "colors": ["#ffffff", "#abbcda", "#e7d8b1", "#cccccc", "#0099cc"],
      "path": "https://w.wallhaven.cc/full/o5/wallhaven-o5qg79.jpg",
      "thumbs": {
        "large": "https://th.wallhaven.cc/lg/o5/o5qg79.jpg",
        "original": "https://th.wallhaven.cc/orig/o5/o5qg79.jpg",
        "small": "https://th.wallhaven.cc/small/o5/o5qg79.jpg"
      }
    },
    {
      "id": "m35328",
      "url": "https://wallhaven.cc/w/m35328",
      "short_url": "https://whvn.cc/m35328",
      "views": 645,
      "favorites": 68,
      "source": "",
      "purity": "sketchy",
      "category": "anime",
      "dimension_x": 2906,
      "dimension_y": 2055,
      "resolution": "2906x2055",
      "ratio": "1.41",
      "file_size": 495591,
      "file_type": "image/jpeg",
      "created_at": "2024-07-19 16:00:13",
      "colors": ["#e7d8b1", "#ffffff", "#999999", "#fdadc7", "#abbcda"],
      "path": "https://w.wallhaven.cc/full/m3/wallhaven-m35328.jpg",
      "thumbs": {
        "large": "https://th.wallhaven.cc/lg/m3/m35328.jpg",
        "original": "https://th.wallhaven.cc/orig/m3/m35328.jpg",
        "small": "https://th.wallhaven.cc/small/m3/m35328.jpg"
      }
    },
    {
      "id": "yx6j6x",
      "url": "https://wallhaven.cc/w/yx6j6x",
      "short_url": "https://whvn.cc/yx6j6x",
      "views": 1647,
      "favorites": 42,
      "source": "https://www.pixiv.net/artworks/119614387",
      "purity": "sfw",
      "category": "anime",
      "dimension_x": 2880,
      "dimension_y": 4278,
      "resolution": "2880x4278",
      "ratio": "0.67",
      "file_size": 1250859,
      "file_type": "image/jpeg",
      "created_at": "2024-07-15 22:02:01",
      "colors": ["#000000", "#424153", "#996633", "#ffcc33", "#cc6633"],
      "path": "https://w.wallhaven.cc/full/yx/wallhaven-yx6j6x.jpg",
      "thumbs": {
        "large": "https://th.wallhaven.cc/lg/yx/yx6j6x.jpg",
        "original": "https://th.wallhaven.cc/orig/yx/yx6j6x.jpg",
        "small": "https://th.wallhaven.cc/small/yx/yx6j6x.jpg"
      }
    },
    {
      "id": "vqjmjm",
      "url": "https://wallhaven.cc/w/vqjmjm",
      "short_url": "https://whvn.cc/vqjmjm",
      "views": 1811,
      "favorites": 73,
      "source": "https://twitter.com/shibbunny/status/1812566886963401114",
      "purity": "sketchy",
      "category": "anime",
      "dimension_x": 3100,
      "dimension_y": 3900,
      "resolution": "3100x3900",
      "ratio": "0.79",
      "file_size": 646951,
      "file_type": "image/jpeg",
      "created_at": "2024-07-15 21:33:32",
      "colors": ["#424153", "#0066cc", "#000000", "#999999", "#333399"],
      "path": "https://w.wallhaven.cc/full/vq/wallhaven-vqjmjm.jpg",
      "thumbs": {
        "large": "https://th.wallhaven.cc/lg/vq/vqjmjm.jpg",
        "original": "https://th.wallhaven.cc/orig/vq/vqjmjm.jpg",
        "small": "https://th.wallhaven.cc/small/vq/vqjmjm.jpg"
      }
    },
    {
      "id": "d6jxdj",
      "url": "https://wallhaven.cc/w/d6jxdj",
      "short_url": "https://whvn.cc/d6jxdj",
      "views": 887,
      "favorites": 60,
      "source": "",
      "purity": "sketchy",
      "category": "anime",
      "dimension_x": 3840,
      "dimension_y": 2160,
      "resolution": "3840x2160",
      "ratio": "1.78",
      "file_size": 14301578,
      "file_type": "image/png",
      "created_at": "2024-07-14 08:45:27",
      "colors": ["#999999", "#424153", "#cccccc", "#e7d8b1", "#996633"],
      "path": "https://w.wallhaven.cc/full/d6/wallhaven-d6jxdj.png",
      "thumbs": {
        "large": "https://th.wallhaven.cc/lg/d6/d6jxdj.jpg",
        "original": "https://th.wallhaven.cc/orig/d6/d6jxdj.jpg",
        "small": "https://th.wallhaven.cc/small/d6/d6jxdj.jpg"
      }
    },
    {
      "id": "1pv8j3",
      "url": "https://wallhaven.cc/w/1pv8j3",
      "short_url": "https://whvn.cc/1pv8j3",
      "views": 1555,
      "favorites": 92,
      "source": "https://x.com/NIKKE_en/status/1811943679931597123",
      "purity": "sketchy",
      "category": "anime",
      "dimension_x": 3840,
      "dimension_y": 2160,
      "resolution": "3840x2160",
      "ratio": "1.78",
      "file_size": 2738506,
      "file_type": "image/jpeg",
      "created_at": "2024-07-13 13:15:15",
      "colors": ["#999999", "#e7d8b1", "#424153", "#663399", "#fdadc7"],
      "path": "https://w.wallhaven.cc/full/1p/wallhaven-1pv8j3.jpg",
      "thumbs": {
        "large": "https://th.wallhaven.cc/lg/1p/1pv8j3.jpg",
        "original": "https://th.wallhaven.cc/orig/1p/1pv8j3.jpg",
        "small": "https://th.wallhaven.cc/small/1p/1pv8j3.jpg"
      }
    },
    {
      "id": "m3e8my",
      "url": "https://wallhaven.cc/w/m3e8my",
      "short_url": "https://whvn.cc/m3e8my",
      "views": 1520,
      "favorites": 126,
      "source": "https://www.pixiv.net/artworks/120462350",
      "purity": "sketchy",
      "category": "anime",
      "dimension_x": 4177,
      "dimension_y": 2350,
      "resolution": "4177x2350",
      "ratio": "1.78",
      "file_size": 1238340,
      "file_type": "image/jpeg",
      "created_at": "2024-07-12 13:05:19",
      "colors": ["#999999", "#e7d8b1", "#424153", "#cccc33", "#abbcda"],
      "path": "https://w.wallhaven.cc/full/m3/wallhaven-m3e8my.jpg",
      "thumbs": {
        "large": "https://th.wallhaven.cc/lg/m3/m3e8my.jpg",
        "original": "https://th.wallhaven.cc/orig/m3/m3e8my.jpg",
        "small": "https://th.wallhaven.cc/small/m3/m3e8my.jpg"
      }
    },
    {
      "id": "yxoy27",
      "url": "https://wallhaven.cc/w/yxoy27",
      "short_url": "https://whvn.cc/yxoy27",
      "views": 665,
      "favorites": 59,
      "source": "https://www.pixiv.net/artworks/120252263",
      "purity": "sketchy",
      "category": "anime",
      "dimension_x": 5000,
      "dimension_y": 2727,
      "resolution": "5000x2727",
      "ratio": "1.83",
      "file_size": 9880594,
      "file_type": "image/jpeg",
      "created_at": "2024-07-10 19:23:13",
      "colors": ["#999999", "#424153", "#ffffff", "#66cccc", "#cccccc"],
      "path": "https://w.wallhaven.cc/full/yx/wallhaven-yxoy27.jpg",
      "thumbs": {
        "large": "https://th.wallhaven.cc/lg/yx/yxoy27.jpg",
        "original": "https://th.wallhaven.cc/orig/yx/yxoy27.jpg",
        "small": "https://th.wallhaven.cc/small/yx/yxoy27.jpg"
      }
    },
    {
      "id": "9dpj8k",
      "url": "https://wallhaven.cc/w/9dpj8k",
      "short_url": "https://whvn.cc/9dpj8k",
      "views": 800,
      "favorites": 59,
      "source": "https://www.pixiv.net/artworks/120263302",
      "purity": "sketchy",
      "category": "anime",
      "dimension_x": 3508,
      "dimension_y": 2356,
      "resolution": "3508x2356",
      "ratio": "1.49",
      "file_size": 2581191,
      "file_type": "image/jpeg",
      "created_at": "2024-07-10 16:14:43",
      "colors": ["#e7d8b1", "#424153", "#66cccc", "#999999", "#ffffff"],
      "path": "https://w.wallhaven.cc/full/9d/wallhaven-9dpj8k.jpg",
      "thumbs": {
        "large": "https://th.wallhaven.cc/lg/9d/9dpj8k.jpg",
        "original": "https://th.wallhaven.cc/orig/9d/9dpj8k.jpg",
        "small": "https://th.wallhaven.cc/small/9d/9dpj8k.jpg"
      }
    }
  ],
  "meta": {
    "current_page": 1,
    "last_page": 46,
    "per_page": "24",
    "total": 1098,
    "query": "nature",
    "seed": null
  }
}
